[gd_resource type="NoiseTexture" load_steps=2 format=2]

[sub_resource type="OpenSimplexNoise" id=1]
octaves = 6
period = 244.3
persistence = 0.496
lacunarity = 4.0

[resource]
flags = 3
width = 1024
height = 1024
as_normalmap = true
noise = SubResource( 1 )
