[gd_resource type="Environment" load_steps=3 format=2]

[ext_resource path="res://assets/Backgrounds/watercolor-paper.jpg" type="Texture" id=1]

[sub_resource type="PanoramaSky" id=1]
panorama = ExtResource( 1 )

[resource]
background_mode = 2
background_sky = SubResource( 1 )
background_color = Color( 0.152941, 0.211765, 0.317647, 1 )
