[gd_scene load_steps=2 format=2]

[ext_resource path="res://Tabs/Map/Tile.gd" type="Script" id=1]

[node name="Tile" type="TextureRect"]
anchor_right = 1.0
anchor_bottom = 1.0
margin_right = -768.0
margin_bottom = -344.0
script = ExtResource( 1 )
__meta__ = {
"_edit_use_anchors_": false
}
