<?xml version="1.0" encoding="UTF-8" standalone="no"?>
<svg
   xmlns:dc="http://purl.org/dc/elements/1.1/"
   xmlns:cc="http://creativecommons.org/ns#"
   xmlns:rdf="http://www.w3.org/1999/02/22-rdf-syntax-ns#"
   xmlns:svg="http://www.w3.org/2000/svg"
   xmlns="http://www.w3.org/2000/svg"
   xmlns:sodipodi="http://sodipodi.sourceforge.net/DTD/sodipodi-0.dtd"
   xmlns:inkscape="http://www.inkscape.org/namespaces/inkscape"
   width="100mm"
   height="100mm"
   viewBox="0 0 100 100"
   version="1.1"
   id="svg8"
   inkscape:version="1.0.1 (3bc2e813f5, 2020-09-07)"
   sodipodi:docname="Real.svg"
   inkscape:export-filename="/home/gerritg/Openshoppinglist/assets/icons/Rossmann.png"
   inkscape:export-xdpi="76.199997"
   inkscape:export-ydpi="76.199997">
  <defs
     id="defs2">
    <rect
       x="4.2035375"
       y="22.411394"
       width="144.33544"
       height="112.33894"
       id="rect1005" />
    <rect
       x="2.4586101"
       y="-4.734559"
       width="169.911"
       height="141.19355"
       id="rect955" />
    <rect
       x="22.244639"
       y="32.273581"
       width="62.548196"
       height="42.636667"
       id="rect931" />
    <rect
       x="6.8738595"
       y="3.3618057"
       width="171.55776"
       height="176.66368"
       id="rect917" />
    <rect
       x="7.340072"
       y="6.7829758"
       width="88.017457"
       height="71.314128"
       id="rect889" />
    <rect
       x="6.6664154"
       y="25.010216"
       width="97.715376"
       height="79.026577"
       id="rect845" />
    <rect
       x="12.634922"
       y="30.803825"
       width="74.941024"
       height="55.014776"
       id="rect839" />
  </defs>
  <sodipodi:namedview
     id="base"
     pagecolor="#ffffff"
     bordercolor="#666666"
     borderopacity="1.0"
     inkscape:pageopacity="0.0"
     inkscape:pageshadow="2"
     inkscape:zoom="1.4"
     inkscape:cx="179.71647"
     inkscape:cy="214.84983"
     inkscape:document-units="mm"
     inkscape:current-layer="layer1"
     inkscape:document-rotation="0"
     showgrid="false"
     inkscape:window-width="1920"
     inkscape:window-height="1016"
     inkscape:window-x="0"
     inkscape:window-y="27"
     inkscape:window-maximized="1" />
  <metadata
     id="metadata5">
    <rdf:RDF>
      <cc:Work
         rdf:about="">
        <dc:format>image/svg+xml</dc:format>
        <dc:type
           rdf:resource="http://purl.org/dc/dcmitype/StillImage" />
        <dc:title></dc:title>
      </cc:Work>
    </rdf:RDF>
  </metadata>
  <g
     inkscape:label="Ebene 1"
     inkscape:groupmode="layer"
     id="layer1">
    <text
       xml:space="preserve"
       id="text837"
       style="font-style:normal;font-weight:normal;font-size:50.8px;line-height:1.25;font-family:sans-serif;letter-spacing:0px;word-spacing:0px;white-space:pre;shape-inside:url(#rect839);fill:#000000;fill-opacity:1;stroke:none;" />
    <text
       xml:space="preserve"
       id="text1003"
       style="font-style:normal;font-weight:normal;font-size:5.64444px;line-height:1.25;font-family:sans-serif;letter-spacing:0px;word-spacing:0px;white-space:pre;shape-inside:url(#rect1005);fill:#112041;fill-opacity:1;stroke:none;"
       transform="translate(-5.3020827,5.0424432)"><tspan
         x="4.203125"
         y="56.74597"><tspan
           style="font-size:38.8056px;fill:#112041;fill-opacity:1">REAL</tspan></tspan></text>
  </g>
</svg>
