<?xml version="1.0" encoding="UTF-8" standalone="no"?>
<svg
   xmlns:dc="http://purl.org/dc/elements/1.1/"
   xmlns:cc="http://creativecommons.org/ns#"
   xmlns:rdf="http://www.w3.org/1999/02/22-rdf-syntax-ns#"
   xmlns:svg="http://www.w3.org/2000/svg"
   xmlns="http://www.w3.org/2000/svg"
   xmlns:sodipodi="http://sodipodi.sourceforge.net/DTD/sodipodi-0.dtd"
   xmlns:inkscape="http://www.inkscape.org/namespaces/inkscape"
   width="100mm"
   height="100mm"
   viewBox="0 0 100 100"
   version="1.1"
   id="svg8"
   inkscape:version="1.0.1 (3bc2e813f5, 2020-09-07)"
   sodipodi:docname="Wolke.svg"
   inkscape:export-filename="/home/gerritg/Openshoppinglist/assets/icons/Wolke.png"
   inkscape:export-xdpi="76.199997"
   inkscape:export-ydpi="76.199997">
  <defs
     id="defs2" />
  <sodipodi:namedview
     id="base"
     pagecolor="#ffffff"
     bordercolor="#666666"
     borderopacity="1.0"
     inkscape:pageopacity="0.0"
     inkscape:pageshadow="2"
     inkscape:zoom="1.4"
     inkscape:cx="146.52372"
     inkscape:cy="151.67913"
     inkscape:document-units="mm"
     inkscape:current-layer="layer1"
     inkscape:document-rotation="0"
     showgrid="false"
     inkscape:window-width="1920"
     inkscape:window-height="1016"
     inkscape:window-x="0"
     inkscape:window-y="27"
     inkscape:window-maximized="1" />
  <metadata
     id="metadata5">
    <rdf:RDF>
      <cc:Work
         rdf:about="">
        <dc:format>image/svg+xml</dc:format>
        <dc:type
           rdf:resource="http://purl.org/dc/dcmitype/StillImage" />
        <dc:title></dc:title>
      </cc:Work>
    </rdf:RDF>
  </metadata>
  <g
     inkscape:label="Ebene 1"
     inkscape:groupmode="layer"
     id="layer1">
    <path
       id="path833"
       style="fill:#7a7a7a;fill-opacity:1;stroke-width:7.55906;stroke:#9c9c9c;stroke-opacity:1"
       d="M 153.54688 40.869141 A 68.194862 68.194862 0 0 0 85.53125 109.06445 A 68.194862 68.194862 0 0 0 86.0625 117.54688 A 66.58399 61.811308 0 0 0 73.865234 116.50195 A 66.58399 61.811308 0 0 0 7.28125 178.3125 A 66.58399 61.811308 0 0 0 58.498047 238.45312 A 69.191671 62.065372 0 0 0 127.49023 295.83789 A 69.191671 62.065372 0 0 0 186.84375 265.67188 A 62.10957 63.176168 0 0 0 234.66211 288.53125 A 62.10957 63.176168 0 0 0 288.20117 257.375 A 69.76436 68.134072 0 0 0 297.54688 257.98828 A 69.76436 68.134072 0 0 0 367.31055 189.85547 A 69.76436 68.134072 0 0 0 297.57812 121.7207 A 62.033257 62.033257 0 0 0 237.88086 76.548828 A 62.033257 62.033257 0 0 0 215.71875 80.644531 A 68.194862 68.194862 0 0 0 153.72656 40.869141 A 68.194862 68.194862 0 0 0 153.54688 40.869141 z "
       transform="scale(0.26458333)" />
  </g>
</svg>
